<?xml version="1.0" encoding="UTF-8" standalone="no"?>
<!DOCTYPE svg PUBLIC "-//W3C//DTD SVG 1.1//EN"
 "http://www.w3.org/Graphics/SVG/1.1/DTD/svg11.dtd">
<!-- Generated by graphviz version 2.47.3 (20210619.1520)
 -->
<!-- Title: dependencies Pages: 1 -->
<svg width="4774pt" height="247pt"
 viewBox="0.00 0.00 4774.00 246.80" xmlns="http://www.w3.org/2000/svg" xmlns:xlink="http://www.w3.org/1999/xlink">
<g id="graph0" class="graph" transform="scale(1 1) rotate(0) translate(4 242.8)">
<title>dependencies</title>
<polygon fill="white" stroke="transparent" points="-4,4 -4,-242.8 4770,-242.8 4770,4 -4,4"/>
<text text-anchor="middle" x="2383" y="-8.2" font-family="sans-serif" font-size="14.00">dependencies</text>
<g id="clust1" class="cluster">
<title>cluster_SharedModule</title>
<polygon fill="none" stroke="black" stroke-dasharray="1,5" points="8,-32.8 8,-230.8 4758,-230.8 4758,-32.8 8,-32.8"/>
</g>
<g id="clust2" class="cluster">
<title>cluster_SharedModule_declarations</title>
<polygon fill="none" stroke="black" points="78,-40.8 78,-92.8 4687,-92.8 4687,-40.8 78,-40.8"/>
</g>
<g id="clust39" class="cluster">
<title>cluster_SharedModule_exports</title>
<polygon fill="none" stroke="black" points="16,-170.8 16,-222.8 4750,-222.8 4750,-170.8 16,-170.8"/>
</g>
<!-- AccordionComponent -->
<g id="node1" class="node">
<title>AccordionComponent</title>
<polygon fill="#ffffb3" stroke="black" points="4679.42,-84.8 4538.58,-84.8 4538.58,-48.8 4679.42,-48.8 4679.42,-84.8"/>
<text text-anchor="middle" x="4609" y="-62.6" font-family="Times,serif" font-size="14.00">AccordionComponent</text>
</g>
<!-- SharedModule -->
<g id="node36" class="node">
<title>SharedModule</title>
<polygon fill="#8dd3c7" stroke="black" points="2420.42,-149.8 2417.42,-153.8 2396.42,-153.8 2393.42,-149.8 2321.58,-149.8 2321.58,-113.8 2420.42,-113.8 2420.42,-149.8"/>
<text text-anchor="middle" x="2371" y="-127.6" font-family="Times,serif" font-size="14.00">SharedModule</text>
</g>
<!-- AccordionComponent&#45;&gt;SharedModule -->
<g id="edge1" class="edge">
<title>AccordionComponent&#45;&gt;SharedModule</title>
<path fill="none" stroke="black" d="M4559.32,-84.91C4559.32,-104.14 4559.32,-131.8 4559.32,-131.8 4559.32,-131.8 2430.29,-131.8 2430.29,-131.8"/>
<polygon fill="black" stroke="black" points="2430.29,-128.3 2420.29,-131.8 2430.29,-135.3 2430.29,-128.3"/>
</g>
<!-- AccordionGroupComponent -->
<g id="node2" class="node">
<title>AccordionGroupComponent</title>
<polygon fill="#ffffb3" stroke="black" points="4521.19,-84.8 4344.81,-84.8 4344.81,-48.8 4521.19,-48.8 4521.19,-84.8"/>
<text text-anchor="middle" x="4433" y="-62.6" font-family="Times,serif" font-size="14.00">AccordionGroupComponent</text>
</g>
<!-- AccordionGroupComponent&#45;&gt;SharedModule -->
<g id="edge2" class="edge">
<title>AccordionGroupComponent&#45;&gt;SharedModule</title>
<path fill="none" stroke="black" d="M4363.75,-84.97C4363.75,-103.89 4363.75,-130.8 4363.75,-130.8 4363.75,-130.8 2430.26,-130.8 2430.26,-130.8"/>
<polygon fill="black" stroke="black" points="2430.26,-127.3 2420.26,-130.8 2430.26,-134.3 2430.26,-127.3"/>
</g>
<!-- BodyComponent -->
<g id="node3" class="node">
<title>BodyComponent</title>
<polygon fill="#ffffb3" stroke="black" points="4326.67,-84.8 4215.33,-84.8 4215.33,-48.8 4326.67,-48.8 4326.67,-84.8"/>
<text text-anchor="middle" x="4271" y="-62.6" font-family="Times,serif" font-size="14.00">BodyComponent</text>
</g>
<!-- BodyComponent&#45;&gt;SharedModule -->
<g id="edge3" class="edge">
<title>BodyComponent&#45;&gt;SharedModule</title>
<path fill="none" stroke="black" d="M4232.2,-85.02C4232.2,-103.63 4232.2,-129.8 4232.2,-129.8 4232.2,-129.8 2430.3,-129.8 2430.3,-129.8"/>
<polygon fill="black" stroke="black" points="2430.3,-126.3 2420.3,-129.8 2430.3,-133.3 2430.3,-126.3"/>
</g>
<!-- BorderDirective -->
<g id="node4" class="node">
<title>BorderDirective</title>
<polygon fill="#ffffb3" stroke="black" points="4197.46,-84.8 4090.54,-84.8 4090.54,-48.8 4197.46,-48.8 4197.46,-84.8"/>
<text text-anchor="middle" x="4144" y="-62.6" font-family="Times,serif" font-size="14.00">BorderDirective</text>
</g>
<!-- BorderDirective&#45;&gt;SharedModule -->
<g id="edge4" class="edge">
<title>BorderDirective&#45;&gt;SharedModule</title>
<path fill="none" stroke="black" d="M4105.77,-85.07C4105.77,-103.36 4105.77,-128.8 4105.77,-128.8 4105.77,-128.8 2430.58,-128.8 2430.58,-128.8"/>
<polygon fill="black" stroke="black" points="2430.58,-125.3 2420.58,-128.8 2430.58,-132.3 2430.58,-125.3"/>
</g>
<!-- CardComponent -->
<g id="node5" class="node">
<title>CardComponent</title>
<polygon fill="#ffffb3" stroke="black" points="4072.05,-84.8 3963.95,-84.8 3963.95,-48.8 4072.05,-48.8 4072.05,-84.8"/>
<text text-anchor="middle" x="4018" y="-62.6" font-family="Times,serif" font-size="14.00">CardComponent</text>
</g>
<!-- CardComponent&#45;&gt;SharedModule -->
<g id="edge5" class="edge">
<title>CardComponent&#45;&gt;SharedModule</title>
<path fill="none" stroke="black" d="M3977.13,-85.1C3977.13,-103.07 3977.13,-127.8 3977.13,-127.8 3977.13,-127.8 2430.39,-127.8 2430.39,-127.8"/>
<polygon fill="black" stroke="black" points="2430.39,-124.3 2420.39,-127.8 2430.39,-131.3 2430.39,-124.3"/>
</g>
<!-- ColComponent -->
<g id="node6" class="node">
<title>ColComponent</title>
<polygon fill="#ffffb3" stroke="black" points="3945.56,-84.8 3844.44,-84.8 3844.44,-48.8 3945.56,-48.8 3945.56,-84.8"/>
<text text-anchor="middle" x="3895" y="-62.6" font-family="Times,serif" font-size="14.00">ColComponent</text>
</g>
<!-- ColComponent&#45;&gt;SharedModule -->
<g id="edge6" class="edge">
<title>ColComponent&#45;&gt;SharedModule</title>
<path fill="none" stroke="black" d="M3855.67,-84.8C3855.67,-102.48 3855.67,-126.8 3855.67,-126.8 3855.67,-126.8 2430.4,-126.8 2430.4,-126.8"/>
<polygon fill="black" stroke="black" points="2430.4,-123.3 2420.4,-126.8 2430.4,-130.3 2430.4,-123.3"/>
</g>
<!-- FilterByGenderPipe -->
<g id="node7" class="node">
<title>FilterByGenderPipe</title>
<polygon fill="#ffffb3" stroke="black" points="3826.25,-84.8 3697.75,-84.8 3697.75,-48.8 3826.25,-48.8 3826.25,-84.8"/>
<text text-anchor="middle" x="3762" y="-62.6" font-family="Times,serif" font-size="14.00">FilterByGenderPipe</text>
</g>
<!-- FilterByGenderPipe&#45;&gt;SharedModule -->
<g id="edge7" class="edge">
<title>FilterByGenderPipe&#45;&gt;SharedModule</title>
<path fill="none" stroke="black" d="M3707.49,-84.82C3707.49,-102.17 3707.49,-125.8 3707.49,-125.8 3707.49,-125.8 2430.55,-125.8 2430.55,-125.8"/>
<polygon fill="black" stroke="black" points="2430.55,-122.3 2420.55,-125.8 2430.55,-129.3 2430.55,-122.3"/>
</g>
<!-- FilterByTextPipe -->
<g id="node8" class="node">
<title>FilterByTextPipe</title>
<polygon fill="#ffffb3" stroke="black" points="3679.71,-84.8 3566.29,-84.8 3566.29,-48.8 3679.71,-48.8 3679.71,-84.8"/>
<text text-anchor="middle" x="3623" y="-62.6" font-family="Times,serif" font-size="14.00">FilterByTextPipe</text>
</g>
<!-- FilterByTextPipe&#45;&gt;SharedModule -->
<g id="edge8" class="edge">
<title>FilterByTextPipe&#45;&gt;SharedModule</title>
<path fill="none" stroke="black" d="M3574.37,-84.83C3574.37,-101.86 3574.37,-124.8 3574.37,-124.8 3574.37,-124.8 2430.42,-124.8 2430.42,-124.8"/>
<polygon fill="black" stroke="black" points="2430.42,-121.3 2420.42,-124.8 2430.42,-128.3 2430.42,-121.3"/>
</g>
<!-- FlexColDirective -->
<g id="node9" class="node">
<title>FlexColDirective</title>
<polygon fill="#ffffb3" stroke="black" points="3548.7,-84.8 3435.3,-84.8 3435.3,-48.8 3548.7,-48.8 3548.7,-84.8"/>
<text text-anchor="middle" x="3492" y="-62.6" font-family="Times,serif" font-size="14.00">FlexColDirective</text>
</g>
<!-- FlexColDirective&#45;&gt;SharedModule -->
<g id="edge9" class="edge">
<title>FlexColDirective&#45;&gt;SharedModule</title>
<path fill="none" stroke="black" d="M3441.32,-84.84C3441.32,-101.53 3441.32,-123.8 3441.32,-123.8 3441.32,-123.8 2430.48,-123.8 2430.48,-123.8"/>
<polygon fill="black" stroke="black" points="2430.48,-120.3 2420.48,-123.8 2430.48,-127.3 2430.48,-120.3"/>
</g>
<!-- FlexDirective -->
<g id="node10" class="node">
<title>FlexDirective</title>
<polygon fill="#ffffb3" stroke="black" points="3417.47,-84.8 3324.53,-84.8 3324.53,-48.8 3417.47,-48.8 3417.47,-84.8"/>
<text text-anchor="middle" x="3371" y="-62.6" font-family="Times,serif" font-size="14.00">FlexDirective</text>
</g>
<!-- FlexDirective&#45;&gt;SharedModule -->
<g id="edge10" class="edge">
<title>FlexDirective&#45;&gt;SharedModule</title>
<path fill="none" stroke="black" d="M3328.51,-84.83C3328.51,-101.2 3328.51,-122.8 3328.51,-122.8 3328.51,-122.8 2430.46,-122.8 2430.46,-122.8"/>
<polygon fill="black" stroke="black" points="2430.46,-119.3 2420.46,-122.8 2430.46,-126.3 2430.46,-119.3"/>
</g>
<!-- FocusDirective -->
<g id="node11" class="node">
<title>FocusDirective</title>
<polygon fill="#ffffb3" stroke="black" points="3306.53,-84.8 3205.47,-84.8 3205.47,-48.8 3306.53,-48.8 3306.53,-84.8"/>
<text text-anchor="middle" x="3256" y="-62.6" font-family="Times,serif" font-size="14.00">FocusDirective</text>
</g>
<!-- FocusDirective&#45;&gt;SharedModule -->
<g id="edge11" class="edge">
<title>FocusDirective&#45;&gt;SharedModule</title>
<path fill="none" stroke="black" d="M3218.59,-84.81C3218.59,-100.85 3218.59,-121.8 3218.59,-121.8 3218.59,-121.8 2430.23,-121.8 2430.23,-121.8"/>
<polygon fill="black" stroke="black" points="2430.23,-118.3 2420.23,-121.8 2430.23,-125.3 2430.23,-118.3"/>
</g>
<!-- FooterComponent -->
<g id="node12" class="node">
<title>FooterComponent</title>
<polygon fill="#ffffb3" stroke="black" points="3186.88,-84.8 3069.12,-84.8 3069.12,-48.8 3186.88,-48.8 3186.88,-84.8"/>
<text text-anchor="middle" x="3128" y="-62.6" font-family="Times,serif" font-size="14.00">FooterComponent</text>
</g>
<!-- FooterComponent&#45;&gt;SharedModule -->
<g id="edge12" class="edge">
<title>FooterComponent&#45;&gt;SharedModule</title>
<path fill="none" stroke="black" d="M3079.14,-85.08C3079.14,-100.75 3079.14,-120.8 3079.14,-120.8 3079.14,-120.8 2430.23,-120.8 2430.23,-120.8"/>
<polygon fill="black" stroke="black" points="2430.23,-117.3 2420.23,-120.8 2430.23,-124.3 2430.23,-117.3"/>
</g>
<!-- FormatGbPipe -->
<g id="node13" class="node">
<title>FormatGbPipe</title>
<polygon fill="#ffffb3" stroke="black" points="3051.43,-84.8 2952.57,-84.8 2952.57,-48.8 3051.43,-48.8 3051.43,-84.8"/>
<text text-anchor="middle" x="3002" y="-62.6" font-family="Times,serif" font-size="14.00">FormatGbPipe</text>
</g>
<!-- FormatGbPipe&#45;&gt;SharedModule -->
<g id="edge13" class="edge">
<title>FormatGbPipe&#45;&gt;SharedModule</title>
<path fill="none" stroke="black" d="M2960.41,-85.04C2960.41,-100.37 2960.41,-119.8 2960.41,-119.8 2960.41,-119.8 2430.24,-119.8 2430.24,-119.8"/>
<polygon fill="black" stroke="black" points="2430.24,-116.3 2420.24,-119.8 2430.24,-123.3 2430.24,-116.3"/>
</g>
<!-- GetUserHumanPipe -->
<g id="node14" class="node">
<title>GetUserHumanPipe</title>
<polygon fill="#ffffb3" stroke="black" points="2934.24,-84.8 2805.76,-84.8 2805.76,-48.8 2934.24,-48.8 2934.24,-84.8"/>
<text text-anchor="middle" x="2870" y="-62.6" font-family="Times,serif" font-size="14.00">GetUserHumanPipe</text>
</g>
<!-- GetUserHumanPipe&#45;&gt;SharedModule -->
<g id="edge14" class="edge">
<title>GetUserHumanPipe&#45;&gt;SharedModule</title>
<path fill="none" stroke="black" d="M2811.76,-84.99C2811.76,-99.98 2811.76,-118.8 2811.76,-118.8 2811.76,-118.8 2430.28,-118.8 2430.28,-118.8"/>
<polygon fill="black" stroke="black" points="2430.28,-115.3 2420.28,-118.8 2430.28,-122.3 2430.28,-115.3"/>
</g>
<!-- GetUserPipe -->
<g id="node15" class="node">
<title>GetUserPipe</title>
<polygon fill="#ffffb3" stroke="black" points="2787.53,-84.8 2700.47,-84.8 2700.47,-48.8 2787.53,-48.8 2787.53,-84.8"/>
<text text-anchor="middle" x="2744" y="-62.6" font-family="Times,serif" font-size="14.00">GetUserPipe</text>
</g>
<!-- GetUserPipe&#45;&gt;SharedModule -->
<g id="edge15" class="edge">
<title>GetUserPipe&#45;&gt;SharedModule</title>
<path fill="none" stroke="black" d="M2704.36,-84.92C2704.36,-99.58 2704.36,-117.8 2704.36,-117.8 2704.36,-117.8 2430.55,-117.8 2430.55,-117.8"/>
<polygon fill="black" stroke="black" points="2430.55,-114.3 2420.55,-117.8 2430.55,-121.3 2430.55,-114.3"/>
</g>
<!-- GmapComponent -->
<g id="node16" class="node">
<title>GmapComponent</title>
<polygon fill="#ffffb3" stroke="black" points="2681.55,-84.8 2566.45,-84.8 2566.45,-48.8 2681.55,-48.8 2681.55,-84.8"/>
<text text-anchor="middle" x="2624" y="-62.6" font-family="Times,serif" font-size="14.00">GmapComponent</text>
</g>
<!-- GmapComponent&#45;&gt;SharedModule -->
<g id="edge16" class="edge">
<title>GmapComponent&#45;&gt;SharedModule</title>
<path fill="none" stroke="black" d="M2645.01,-84.85C2645.01,-99.17 2645.01,-116.8 2645.01,-116.8 2645.01,-116.8 2430.3,-116.8 2430.3,-116.8"/>
<polygon fill="black" stroke="black" points="2430.3,-113.3 2420.3,-116.8 2430.3,-120.3 2430.3,-113.3"/>
</g>
<!-- HelloDirective -->
<g id="node17" class="node">
<title>HelloDirective</title>
<polygon fill="#ffffb3" stroke="black" points="2548.69,-84.8 2449.31,-84.8 2449.31,-48.8 2548.69,-48.8 2548.69,-84.8"/>
<text text-anchor="middle" x="2499" y="-62.6" font-family="Times,serif" font-size="14.00">HelloDirective</text>
</g>
<!-- HelloDirective&#45;&gt;SharedModule -->
<g id="edge17" class="edge">
<title>HelloDirective&#45;&gt;SharedModule</title>
<path fill="none" stroke="black" d="M2515.95,-85.05C2515.95,-98.98 2515.95,-115.8 2515.95,-115.8 2515.95,-115.8 2430.48,-115.8 2430.48,-115.8"/>
<polygon fill="black" stroke="black" points="2430.48,-112.3 2420.48,-115.8 2430.48,-119.3 2430.48,-112.3"/>
</g>
<!-- IfLoggedDirective -->
<g id="node18" class="node">
<title>IfLoggedDirective</title>
<polygon fill="#ffffb3" stroke="black" points="2431.17,-84.8 2310.83,-84.8 2310.83,-48.8 2431.17,-48.8 2431.17,-84.8"/>
<text text-anchor="middle" x="2371" y="-62.6" font-family="Times,serif" font-size="14.00">IfLoggedDirective</text>
</g>
<!-- IfLoggedDirective&#45;&gt;SharedModule -->
<g id="edge18" class="edge">
<title>IfLoggedDirective&#45;&gt;SharedModule</title>
<path fill="none" stroke="black" d="M2371,-84.91C2371,-84.91 2371,-103.79 2371,-103.79"/>
<polygon fill="black" stroke="black" points="2367.5,-103.79 2371,-113.79 2374.5,-103.79 2367.5,-103.79"/>
</g>
<!-- IfRoleIsDirective -->
<g id="node19" class="node">
<title>IfRoleIsDirective</title>
<polygon fill="#ffffb3" stroke="black" points="2292.95,-84.8 2179.05,-84.8 2179.05,-48.8 2292.95,-48.8 2292.95,-84.8"/>
<text text-anchor="middle" x="2236" y="-62.6" font-family="Times,serif" font-size="14.00">IfRoleIsDirective</text>
</g>
<!-- IfRoleIsDirective&#45;&gt;SharedModule -->
<g id="edge19" class="edge">
<title>IfRoleIsDirective&#45;&gt;SharedModule</title>
<path fill="none" stroke="black" d="M2253.49,-85.05C2253.49,-98.98 2253.49,-115.8 2253.49,-115.8 2253.49,-115.8 2311.51,-115.8 2311.51,-115.8"/>
<polygon fill="black" stroke="black" points="2311.51,-119.3 2321.51,-115.8 2311.51,-112.3 2311.51,-119.3"/>
</g>
<!-- IfSigninDirective -->
<g id="node20" class="node">
<title>IfSigninDirective</title>
<polygon fill="#ffffb3" stroke="black" points="2160.97,-84.8 2047.03,-84.8 2047.03,-48.8 2160.97,-48.8 2160.97,-84.8"/>
<text text-anchor="middle" x="2104" y="-62.6" font-family="Times,serif" font-size="14.00">IfSigninDirective</text>
</g>
<!-- IfSigninDirective&#45;&gt;SharedModule -->
<g id="edge20" class="edge">
<title>IfSigninDirective&#45;&gt;SharedModule</title>
<path fill="none" stroke="black" d="M2119.49,-84.85C2119.49,-99.17 2119.49,-116.8 2119.49,-116.8 2119.49,-116.8 2311.61,-116.8 2311.61,-116.8"/>
<polygon fill="black" stroke="black" points="2311.61,-120.3 2321.61,-116.8 2311.61,-113.3 2311.61,-120.3"/>
</g>
<!-- LinkDirective -->
<g id="node21" class="node">
<title>LinkDirective</title>
<polygon fill="#ffffb3" stroke="black" points="2029.03,-84.8 1934.97,-84.8 1934.97,-48.8 2029.03,-48.8 2029.03,-84.8"/>
<text text-anchor="middle" x="1982" y="-62.6" font-family="Times,serif" font-size="14.00">LinkDirective</text>
</g>
<!-- LinkDirective&#45;&gt;SharedModule -->
<g id="edge21" class="edge">
<title>LinkDirective&#45;&gt;SharedModule</title>
<path fill="none" stroke="black" d="M2024.64,-84.92C2024.64,-99.58 2024.64,-117.8 2024.64,-117.8 2024.64,-117.8 2311.74,-117.8 2311.74,-117.8"/>
<polygon fill="black" stroke="black" points="2311.74,-121.3 2321.74,-117.8 2311.74,-114.3 2311.74,-121.3"/>
</g>
<!-- LoaderDirective -->
<g id="node22" class="node">
<title>LoaderDirective</title>
<polygon fill="#ffffb3" stroke="black" points="1916.73,-84.8 1809.27,-84.8 1809.27,-48.8 1916.73,-48.8 1916.73,-84.8"/>
<text text-anchor="middle" x="1863" y="-62.6" font-family="Times,serif" font-size="14.00">LoaderDirective</text>
</g>
<!-- LoaderDirective&#45;&gt;SharedModule -->
<g id="edge22" class="edge">
<title>LoaderDirective&#45;&gt;SharedModule</title>
<path fill="none" stroke="black" d="M1910.24,-84.99C1910.24,-99.98 1910.24,-118.8 1910.24,-118.8 1910.24,-118.8 2311.69,-118.8 2311.69,-118.8"/>
<polygon fill="black" stroke="black" points="2311.69,-122.3 2321.69,-118.8 2311.69,-115.3 2311.69,-122.3"/>
</g>
<!-- MapquestPipe -->
<g id="node23" class="node">
<title>MapquestPipe</title>
<polygon fill="#ffffb3" stroke="black" points="1791.1,-84.8 1694.9,-84.8 1694.9,-48.8 1791.1,-48.8 1791.1,-84.8"/>
<text text-anchor="middle" x="1743" y="-62.6" font-family="Times,serif" font-size="14.00">MapquestPipe</text>
</g>
<!-- MapquestPipe&#45;&gt;SharedModule -->
<g id="edge23" class="edge">
<title>MapquestPipe&#45;&gt;SharedModule</title>
<path fill="none" stroke="black" d="M1782.92,-85.04C1782.92,-100.37 1782.92,-119.8 1782.92,-119.8 1782.92,-119.8 2311.62,-119.8 2311.62,-119.8"/>
<polygon fill="black" stroke="black" points="2311.62,-123.3 2321.62,-119.8 2311.62,-116.3 2311.62,-123.3"/>
</g>
<!-- MapquestStaticComponent -->
<g id="node24" class="node">
<title>MapquestStaticComponent</title>
<polygon fill="#ffffb3" stroke="black" points="1677.43,-84.8 1508.57,-84.8 1508.57,-48.8 1677.43,-48.8 1677.43,-84.8"/>
<text text-anchor="middle" x="1593" y="-62.6" font-family="Times,serif" font-size="14.00">MapquestStaticComponent</text>
</g>
<!-- MapquestStaticComponent&#45;&gt;SharedModule -->
<g id="edge24" class="edge">
<title>MapquestStaticComponent&#45;&gt;SharedModule</title>
<path fill="none" stroke="black" d="M1666.08,-85.08C1666.08,-100.75 1666.08,-120.8 1666.08,-120.8 1666.08,-120.8 2311.71,-120.8 2311.71,-120.8"/>
<polygon fill="black" stroke="black" points="2311.71,-124.3 2321.71,-120.8 2311.71,-117.3 2311.71,-124.3"/>
</g>
<!-- MarginDirective -->
<g id="node25" class="node">
<title>MarginDirective</title>
<polygon fill="#ffffb3" stroke="black" points="1490.79,-84.8 1381.21,-84.8 1381.21,-48.8 1490.79,-48.8 1490.79,-84.8"/>
<text text-anchor="middle" x="1436" y="-62.6" font-family="Times,serif" font-size="14.00">MarginDirective</text>
</g>
<!-- MarginDirective&#45;&gt;SharedModule -->
<g id="edge25" class="edge">
<title>MarginDirective&#45;&gt;SharedModule</title>
<path fill="none" stroke="black" d="M1476.22,-84.81C1476.22,-100.85 1476.22,-121.8 1476.22,-121.8 1476.22,-121.8 2311.62,-121.8 2311.62,-121.8"/>
<polygon fill="black" stroke="black" points="2311.62,-125.3 2321.62,-121.8 2311.62,-118.3 2311.62,-125.3"/>
</g>
<!-- PadDirectives -->
<g id="node26" class="node">
<title>PadDirectives</title>
<polygon fill="#ffffb3" stroke="black" points="1363.03,-84.8 1268.97,-84.8 1268.97,-48.8 1363.03,-48.8 1363.03,-84.8"/>
<text text-anchor="middle" x="1316" y="-62.6" font-family="Times,serif" font-size="14.00">PadDirectives</text>
</g>
<!-- PadDirectives&#45;&gt;SharedModule -->
<g id="edge26" class="edge">
<title>PadDirectives&#45;&gt;SharedModule</title>
<path fill="none" stroke="black" d="M1358.93,-84.83C1358.93,-101.2 1358.93,-122.8 1358.93,-122.8 1358.93,-122.8 2311.5,-122.8 2311.5,-122.8"/>
<polygon fill="black" stroke="black" points="2311.5,-126.3 2321.5,-122.8 2311.5,-119.3 2311.5,-126.3"/>
</g>
<!-- RowComponent -->
<g id="node27" class="node">
<title>RowComponent</title>
<polygon fill="#ffffb3" stroke="black" points="1250.78,-84.8 1143.22,-84.8 1143.22,-48.8 1250.78,-48.8 1250.78,-84.8"/>
<text text-anchor="middle" x="1197" y="-62.6" font-family="Times,serif" font-size="14.00">RowComponent</text>
</g>
<!-- RowComponent&#45;&gt;SharedModule -->
<g id="edge27" class="edge">
<title>RowComponent&#45;&gt;SharedModule</title>
<path fill="none" stroke="black" d="M1244.94,-84.84C1244.94,-101.53 1244.94,-123.8 1244.94,-123.8 1244.94,-123.8 2311.53,-123.8 2311.53,-123.8"/>
<polygon fill="black" stroke="black" points="2311.53,-127.3 2321.53,-123.8 2311.53,-120.3 2311.53,-127.3"/>
</g>
<!-- SeparatorComponent -->
<g id="node28" class="node">
<title>SeparatorComponent</title>
<polygon fill="#ffffb3" stroke="black" points="1125.47,-84.8 990.53,-84.8 990.53,-48.8 1125.47,-48.8 1125.47,-84.8"/>
<text text-anchor="middle" x="1058" y="-62.6" font-family="Times,serif" font-size="14.00">SeparatorComponent</text>
</g>
<!-- SeparatorComponent&#45;&gt;SharedModule -->
<g id="edge28" class="edge">
<title>SeparatorComponent&#45;&gt;SharedModule</title>
<path fill="none" stroke="black" d="M1117.42,-84.83C1117.42,-101.86 1117.42,-124.8 1117.42,-124.8 1117.42,-124.8 2311.47,-124.8 2311.47,-124.8"/>
<polygon fill="black" stroke="black" points="2311.47,-128.3 2321.47,-124.8 2311.47,-121.3 2311.47,-128.3"/>
</g>
<!-- SortPipe -->
<g id="node29" class="node">
<title>SortPipe</title>
<polygon fill="#ffffb3" stroke="black" points="972.22,-84.8 907.78,-84.8 907.78,-48.8 972.22,-48.8 972.22,-84.8"/>
<text text-anchor="middle" x="940" y="-62.6" font-family="Times,serif" font-size="14.00">SortPipe</text>
</g>
<!-- SortPipe&#45;&gt;SharedModule -->
<g id="edge29" class="edge">
<title>SortPipe&#45;&gt;SharedModule</title>
<path fill="none" stroke="black" d="M962.44,-84.82C962.44,-102.17 962.44,-125.8 962.44,-125.8 962.44,-125.8 2311.69,-125.8 2311.69,-125.8"/>
<polygon fill="black" stroke="black" points="2311.69,-129.3 2321.69,-125.8 2311.69,-122.3 2311.69,-129.3"/>
</g>
<!-- StopPropagationDirective -->
<g id="node30" class="node">
<title>StopPropagationDirective</title>
<polygon fill="#ffffb3" stroke="black" points="889.91,-84.8 728.09,-84.8 728.09,-48.8 889.91,-48.8 889.91,-84.8"/>
<text text-anchor="middle" x="809" y="-62.6" font-family="Times,serif" font-size="14.00">StopPropagationDirective</text>
</g>
<!-- StopPropagationDirective&#45;&gt;SharedModule -->
<g id="edge30" class="edge">
<title>StopPropagationDirective&#45;&gt;SharedModule</title>
<path fill="none" stroke="black" d="M878.42,-84.8C878.42,-102.48 878.42,-126.8 878.42,-126.8 878.42,-126.8 2311.76,-126.8 2311.76,-126.8"/>
<polygon fill="black" stroke="black" points="2311.76,-130.3 2321.76,-126.8 2311.76,-123.3 2311.76,-130.3"/>
</g>
<!-- TextComponent -->
<g id="node31" class="node">
<title>TextComponent</title>
<polygon fill="#ffffb3" stroke="black" points="710.49,-84.8 603.51,-84.8 603.51,-48.8 710.49,-48.8 710.49,-84.8"/>
<text text-anchor="middle" x="657" y="-62.6" font-family="Times,serif" font-size="14.00">TextComponent</text>
</g>
<!-- TextComponent&#45;&gt;SharedModule -->
<g id="edge31" class="edge">
<title>TextComponent&#45;&gt;SharedModule</title>
<path fill="none" stroke="black" d="M697.52,-85.1C697.52,-103.07 697.52,-127.8 697.52,-127.8 697.52,-127.8 2311.37,-127.8 2311.37,-127.8"/>
<polygon fill="black" stroke="black" points="2311.37,-131.3 2321.37,-127.8 2311.37,-124.3 2311.37,-131.3"/>
</g>
<!-- TimeAgoPipe -->
<g id="node32" class="node">
<title>TimeAgoPipe</title>
<polygon fill="#ffffb3" stroke="black" points="585.04,-84.8 490.96,-84.8 490.96,-48.8 585.04,-48.8 585.04,-84.8"/>
<text text-anchor="middle" x="538" y="-62.6" font-family="Times,serif" font-size="14.00">TimeAgoPipe</text>
</g>
<!-- TimeAgoPipe&#45;&gt;SharedModule -->
<g id="edge32" class="edge">
<title>TimeAgoPipe&#45;&gt;SharedModule</title>
<path fill="none" stroke="black" d="M570.51,-85.07C570.51,-103.36 570.51,-128.8 570.51,-128.8 570.51,-128.8 2311.44,-128.8 2311.44,-128.8"/>
<polygon fill="black" stroke="black" points="2311.44,-132.3 2321.44,-128.8 2311.44,-125.3 2311.44,-132.3"/>
</g>
<!-- UrlDirective -->
<g id="node33" class="node">
<title>UrlDirective</title>
<polygon fill="#ffffb3" stroke="black" points="472.24,-84.8 385.76,-84.8 385.76,-48.8 472.24,-48.8 472.24,-84.8"/>
<text text-anchor="middle" x="429" y="-62.6" font-family="Times,serif" font-size="14.00">UrlDirective</text>
</g>
<!-- UrlDirective&#45;&gt;SharedModule -->
<g id="edge33" class="edge">
<title>UrlDirective&#45;&gt;SharedModule</title>
<path fill="none" stroke="black" d="M456.17,-85.02C456.17,-103.63 456.17,-129.8 456.17,-129.8 456.17,-129.8 2311.74,-129.8 2311.74,-129.8"/>
<polygon fill="black" stroke="black" points="2311.74,-133.3 2321.74,-129.8 2311.74,-126.3 2311.74,-133.3"/>
</g>
<!-- Weather2Component -->
<g id="node34" class="node">
<title>Weather2Component</title>
<polygon fill="#ffffb3" stroke="black" points="367.74,-84.8 232.26,-84.8 232.26,-48.8 367.74,-48.8 367.74,-84.8"/>
<text text-anchor="middle" x="300" y="-62.6" font-family="Times,serif" font-size="14.00">Weather2Component</text>
</g>
<!-- Weather2Component&#45;&gt;SharedModule -->
<g id="edge34" class="edge">
<title>Weather2Component&#45;&gt;SharedModule</title>
<path fill="none" stroke="black" d="M349.88,-84.97C349.88,-103.89 349.88,-130.8 349.88,-130.8 349.88,-130.8 2311.54,-130.8 2311.54,-130.8"/>
<polygon fill="black" stroke="black" points="2311.54,-134.3 2321.54,-130.8 2311.54,-127.3 2311.54,-134.3"/>
</g>
<!-- WeatherComponent -->
<g id="node35" class="node">
<title>WeatherComponent</title>
<polygon fill="#ffffb3" stroke="black" points="214.24,-84.8 85.76,-84.8 85.76,-48.8 214.24,-48.8 214.24,-84.8"/>
<text text-anchor="middle" x="150" y="-62.6" font-family="Times,serif" font-size="14.00">WeatherComponent</text>
</g>
<!-- WeatherComponent&#45;&gt;SharedModule -->
<g id="edge35" class="edge">
<title>WeatherComponent&#45;&gt;SharedModule</title>
<path fill="none" stroke="black" d="M194.38,-84.91C194.38,-104.14 194.38,-131.8 194.38,-131.8 194.38,-131.8 2311.71,-131.8 2311.71,-131.8"/>
<polygon fill="black" stroke="black" points="2311.71,-135.3 2321.71,-131.8 2311.71,-128.3 2311.71,-135.3"/>
</g>
<!-- AccordionComponent  -->
<g id="node37" class="node">
<title>AccordionComponent </title>
<polygon fill="#fb8072" stroke="black" points="4741.92,-214.8 4598.08,-214.8 4598.08,-178.8 4741.92,-178.8 4741.92,-214.8"/>
<text text-anchor="middle" x="4670" y="-192.6" font-family="Times,serif" font-size="14.00">AccordionComponent </text>
</g>
<!-- SharedModule&#45;&gt;AccordionComponent  -->
<g id="edge36" class="edge">
<title>SharedModule&#45;&gt;AccordionComponent </title>
<path fill="none" stroke="black" stroke-dasharray="5,2" d="M2420.47,-132.8C2752.09,-132.8 4638.62,-132.8 4638.62,-132.8 4638.62,-132.8 4638.62,-168.63 4638.62,-168.63"/>
<polygon fill="black" stroke="black" points="4635.13,-168.63 4638.62,-178.63 4642.13,-168.63 4635.13,-168.63"/>
</g>
<!-- AccordionGroupComponent  -->
<g id="node38" class="node">
<title>AccordionGroupComponent </title>
<polygon fill="#fb8072" stroke="black" points="4579.69,-214.8 4400.31,-214.8 4400.31,-178.8 4579.69,-178.8 4579.69,-214.8"/>
<text text-anchor="middle" x="4490" y="-192.6" font-family="Times,serif" font-size="14.00">AccordionGroupComponent </text>
</g>
<!-- SharedModule&#45;&gt;AccordionGroupComponent  -->
<g id="edge37" class="edge">
<title>SharedModule&#45;&gt;AccordionGroupComponent </title>
<path fill="none" stroke="black" stroke-dasharray="5,2" d="M2420.34,-133.8C2736.11,-133.8 4460.62,-133.8 4460.62,-133.8 4460.62,-133.8 4460.62,-168.58 4460.62,-168.58"/>
<polygon fill="black" stroke="black" points="4457.13,-168.58 4460.62,-178.58 4464.13,-168.58 4457.13,-168.58"/>
</g>
<!-- BodyComponent  -->
<g id="node39" class="node">
<title>BodyComponent </title>
<polygon fill="#fb8072" stroke="black" points="4382.67,-214.8 4267.33,-214.8 4267.33,-178.8 4382.67,-178.8 4382.67,-214.8"/>
<text text-anchor="middle" x="4325" y="-192.6" font-family="Times,serif" font-size="14.00">BodyComponent </text>
</g>
<!-- SharedModule&#45;&gt;BodyComponent  -->
<g id="edge38" class="edge">
<title>SharedModule&#45;&gt;BodyComponent </title>
<path fill="none" stroke="black" stroke-dasharray="5,2" d="M2420.55,-134.8C2722.03,-134.8 4297.12,-134.8 4297.12,-134.8 4297.12,-134.8 4297.12,-168.53 4297.12,-168.53"/>
<polygon fill="black" stroke="black" points="4293.63,-168.53 4297.12,-178.53 4300.63,-168.53 4293.63,-168.53"/>
</g>
<!-- BorderDirective  -->
<g id="node40" class="node">
<title>BorderDirective </title>
<polygon fill="#fb8072" stroke="black" points="4249.46,-214.8 4138.54,-214.8 4138.54,-178.8 4249.46,-178.8 4249.46,-214.8"/>
<text text-anchor="middle" x="4194" y="-192.6" font-family="Times,serif" font-size="14.00">BorderDirective </text>
</g>
<!-- SharedModule&#45;&gt;BorderDirective  -->
<g id="edge39" class="edge">
<title>SharedModule&#45;&gt;BorderDirective </title>
<path fill="none" stroke="black" stroke-dasharray="5,2" d="M2420.47,-135.8C2709.61,-135.8 4168.12,-135.8 4168.12,-135.8 4168.12,-135.8 4168.12,-168.5 4168.12,-168.5"/>
<polygon fill="black" stroke="black" points="4164.63,-168.5 4168.12,-178.5 4171.63,-168.5 4164.63,-168.5"/>
</g>
<!-- CardComponent  -->
<g id="node41" class="node">
<title>CardComponent </title>
<polygon fill="#fb8072" stroke="black" points="4121.04,-214.8 4008.96,-214.8 4008.96,-178.8 4121.04,-178.8 4121.04,-214.8"/>
<text text-anchor="middle" x="4065" y="-192.6" font-family="Times,serif" font-size="14.00">CardComponent </text>
</g>
<!-- SharedModule&#45;&gt;CardComponent  -->
<g id="edge40" class="edge">
<title>SharedModule&#45;&gt;CardComponent </title>
<path fill="none" stroke="black" stroke-dasharray="5,2" d="M2420.52,-136.8C2697.31,-136.8 4040.62,-136.8 4040.62,-136.8 4040.62,-136.8 4040.62,-168.8 4040.62,-168.8"/>
<polygon fill="black" stroke="black" points="4037.13,-168.8 4040.62,-178.8 4044.13,-168.8 4037.13,-168.8"/>
</g>
<!-- ColComponent  -->
<g id="node42" class="node">
<title>ColComponent </title>
<polygon fill="#fb8072" stroke="black" points="3990.56,-214.8 3885.44,-214.8 3885.44,-178.8 3990.56,-178.8 3990.56,-214.8"/>
<text text-anchor="middle" x="3938" y="-192.6" font-family="Times,serif" font-size="14.00">ColComponent </text>
</g>
<!-- SharedModule&#45;&gt;ColComponent  -->
<g id="edge41" class="edge">
<title>SharedModule&#45;&gt;ColComponent </title>
<path fill="none" stroke="black" stroke-dasharray="5,2" d="M2420.64,-137.8C2685.03,-137.8 3915.62,-137.8 3915.62,-137.8 3915.62,-137.8 3915.62,-168.78 3915.62,-168.78"/>
<polygon fill="black" stroke="black" points="3912.13,-168.78 3915.62,-178.78 3919.13,-168.78 3912.13,-168.78"/>
</g>
<!-- FilterByGenderPipe  -->
<g id="node43" class="node">
<title>FilterByGenderPipe </title>
<polygon fill="#fb8072" stroke="black" points="3867.25,-214.8 3734.75,-214.8 3734.75,-178.8 3867.25,-178.8 3867.25,-214.8"/>
<text text-anchor="middle" x="3801" y="-192.6" font-family="Times,serif" font-size="14.00">FilterByGenderPipe </text>
</g>
<!-- SharedModule&#45;&gt;FilterByGenderPipe  -->
<g id="edge42" class="edge">
<title>SharedModule&#45;&gt;FilterByGenderPipe </title>
<path fill="none" stroke="black" stroke-dasharray="5,2" d="M2420.34,-138.8C2669.84,-138.8 3780.62,-138.8 3780.62,-138.8 3780.62,-138.8 3780.62,-168.77 3780.62,-168.77"/>
<polygon fill="black" stroke="black" points="3777.13,-168.77 3780.62,-178.77 3784.13,-168.77 3777.13,-168.77"/>
</g>
<!-- FilterByTextPipe  -->
<g id="node44" class="node">
<title>FilterByTextPipe </title>
<polygon fill="#fb8072" stroke="black" points="3717.21,-214.8 3600.79,-214.8 3600.79,-178.8 3717.21,-178.8 3717.21,-214.8"/>
<text text-anchor="middle" x="3659" y="-192.6" font-family="Times,serif" font-size="14.00">FilterByTextPipe </text>
</g>
<!-- SharedModule&#45;&gt;FilterByTextPipe  -->
<g id="edge43" class="edge">
<title>SharedModule&#45;&gt;FilterByTextPipe </title>
<path fill="none" stroke="black" stroke-dasharray="5,2" d="M2420.36,-139.8C2654.3,-139.8 3640.12,-139.8 3640.12,-139.8 3640.12,-139.8 3640.12,-168.76 3640.12,-168.76"/>
<polygon fill="black" stroke="black" points="3636.63,-168.76 3640.12,-178.76 3643.63,-168.76 3636.63,-168.76"/>
</g>
<!-- FlexColDirective  -->
<g id="node45" class="node">
<title>FlexColDirective </title>
<polygon fill="#fb8072" stroke="black" points="3582.2,-214.8 3465.8,-214.8 3465.8,-178.8 3582.2,-178.8 3582.2,-214.8"/>
<text text-anchor="middle" x="3524" y="-192.6" font-family="Times,serif" font-size="14.00">FlexColDirective </text>
</g>
<!-- SharedModule&#45;&gt;FlexColDirective  -->
<g id="edge44" class="edge">
<title>SharedModule&#45;&gt;FlexColDirective </title>
<path fill="none" stroke="black" stroke-dasharray="5,2" d="M2420.55,-140.8C2639.22,-140.8 3507.12,-140.8 3507.12,-140.8 3507.12,-140.8 3507.12,-168.77 3507.12,-168.77"/>
<polygon fill="black" stroke="black" points="3503.63,-168.77 3507.12,-178.77 3510.63,-168.77 3503.63,-168.77"/>
</g>
<!-- FlexDirective  -->
<g id="node46" class="node">
<title>FlexDirective </title>
<polygon fill="#fb8072" stroke="black" points="3447.47,-214.8 3350.53,-214.8 3350.53,-178.8 3447.47,-178.8 3447.47,-214.8"/>
<text text-anchor="middle" x="3399" y="-192.6" font-family="Times,serif" font-size="14.00">FlexDirective </text>
</g>
<!-- SharedModule&#45;&gt;FlexDirective  -->
<g id="edge45" class="edge">
<title>SharedModule&#45;&gt;FlexDirective </title>
<path fill="none" stroke="black" stroke-dasharray="5,2" d="M2420.55,-141.8C2623.96,-141.8 3384.12,-141.8 3384.12,-141.8 3384.12,-141.8 3384.12,-168.79 3384.12,-168.79"/>
<polygon fill="black" stroke="black" points="3380.63,-168.79 3384.12,-178.79 3387.63,-168.79 3380.63,-168.79"/>
</g>
<!-- FocusDirective  -->
<g id="node47" class="node">
<title>FocusDirective </title>
<polygon fill="#fb8072" stroke="black" points="3332.52,-214.8 3227.48,-214.8 3227.48,-178.8 3332.52,-178.8 3332.52,-214.8"/>
<text text-anchor="middle" x="3280" y="-192.6" font-family="Times,serif" font-size="14.00">FocusDirective </text>
</g>
<!-- SharedModule&#45;&gt;FocusDirective  -->
<g id="edge46" class="edge">
<title>SharedModule&#45;&gt;FocusDirective </title>
<path fill="none" stroke="black" stroke-dasharray="5,2" d="M2420.46,-142.8C2608.32,-142.8 3267.12,-142.8 3267.12,-142.8 3267.12,-142.8 3267.12,-168.52 3267.12,-168.52"/>
<polygon fill="black" stroke="black" points="3263.63,-168.52 3267.12,-178.52 3270.63,-168.52 3263.63,-168.52"/>
</g>
<!-- FooterComponent  -->
<g id="node48" class="node">
<title>FooterComponent </title>
<polygon fill="#fb8072" stroke="black" points="3209.88,-214.8 3088.12,-214.8 3088.12,-178.8 3209.88,-178.8 3209.88,-214.8"/>
<text text-anchor="middle" x="3149" y="-192.6" font-family="Times,serif" font-size="14.00">FooterComponent </text>
</g>
<!-- SharedModule&#45;&gt;FooterComponent  -->
<g id="edge47" class="edge">
<title>SharedModule&#45;&gt;FooterComponent </title>
<path fill="none" stroke="black" stroke-dasharray="5,2" d="M2420.42,-143.8C2589.96,-143.8 3137.62,-143.8 3137.62,-143.8 3137.62,-143.8 3137.62,-168.56 3137.62,-168.56"/>
<polygon fill="black" stroke="black" points="3134.13,-168.56 3137.62,-178.56 3141.13,-168.56 3134.13,-168.56"/>
</g>
<!-- FormatGbPipe  -->
<g id="node49" class="node">
<title>FormatGbPipe </title>
<polygon fill="#fb8072" stroke="black" points="3069.93,-214.8 2968.07,-214.8 2968.07,-178.8 3069.93,-178.8 3069.93,-214.8"/>
<text text-anchor="middle" x="3019" y="-192.6" font-family="Times,serif" font-size="14.00">FormatGbPipe </text>
</g>
<!-- SharedModule&#45;&gt;FormatGbPipe  -->
<g id="edge48" class="edge">
<title>SharedModule&#45;&gt;FormatGbPipe </title>
<path fill="none" stroke="black" stroke-dasharray="5,2" d="M2420.32,-144.8C2570.11,-144.8 3009.62,-144.8 3009.62,-144.8 3009.62,-144.8 3009.62,-168.61 3009.62,-168.61"/>
<polygon fill="black" stroke="black" points="3006.13,-168.61 3009.62,-178.61 3013.13,-168.61 3006.13,-168.61"/>
</g>
<!-- GetUserHumanPipe  -->
<g id="node50" class="node">
<title>GetUserHumanPipe </title>
<polygon fill="#fb8072" stroke="black" points="2950.24,-214.8 2817.76,-214.8 2817.76,-178.8 2950.24,-178.8 2950.24,-214.8"/>
<text text-anchor="middle" x="2884" y="-192.6" font-family="Times,serif" font-size="14.00">GetUserHumanPipe </text>
</g>
<!-- SharedModule&#45;&gt;GetUserHumanPipe  -->
<g id="edge49" class="edge">
<title>SharedModule&#45;&gt;GetUserHumanPipe </title>
<path fill="none" stroke="black" stroke-dasharray="5,2" d="M2420.35,-145.8C2547.46,-145.8 2876.12,-145.8 2876.12,-145.8 2876.12,-145.8 2876.12,-168.68 2876.12,-168.68"/>
<polygon fill="black" stroke="black" points="2872.63,-168.68 2876.12,-178.68 2879.63,-168.68 2872.63,-168.68"/>
</g>
<!-- GetUserPipe  -->
<g id="node51" class="node">
<title>GetUserPipe </title>
<polygon fill="#fb8072" stroke="black" points="2799.53,-214.8 2708.47,-214.8 2708.47,-178.8 2799.53,-178.8 2799.53,-214.8"/>
<text text-anchor="middle" x="2754" y="-192.6" font-family="Times,serif" font-size="14.00">GetUserPipe </text>
</g>
<!-- SharedModule&#45;&gt;GetUserPipe  -->
<g id="edge50" class="edge">
<title>SharedModule&#45;&gt;GetUserPipe </title>
<path fill="none" stroke="black" stroke-dasharray="5,2" d="M2420.3,-146.8C2522.53,-146.8 2748.12,-146.8 2748.12,-146.8 2748.12,-146.8 2748.12,-168.75 2748.12,-168.75"/>
<polygon fill="black" stroke="black" points="2744.63,-168.75 2748.12,-178.75 2751.63,-168.75 2744.63,-168.75"/>
</g>
<!-- GmapComponent  -->
<g id="node52" class="node">
<title>GmapComponent </title>
<polygon fill="#fb8072" stroke="black" points="2690.54,-214.8 2571.46,-214.8 2571.46,-178.8 2690.54,-178.8 2690.54,-214.8"/>
<text text-anchor="middle" x="2631" y="-192.6" font-family="Times,serif" font-size="14.00">GmapComponent </text>
</g>
<!-- SharedModule&#45;&gt;GmapComponent  -->
<g id="edge51" class="edge">
<title>SharedModule&#45;&gt;GmapComponent </title>
<path fill="none" stroke="black" stroke-dasharray="5,2" d="M2420.45,-147.8C2489.97,-147.8 2608.24,-147.8 2608.24,-147.8 2608.24,-147.8 2608.24,-168.55 2608.24,-168.55"/>
<polygon fill="black" stroke="black" points="2604.74,-168.55 2608.24,-178.55 2611.74,-168.55 2604.74,-168.55"/>
</g>
<!-- HelloDirective  -->
<g id="node53" class="node">
<title>HelloDirective </title>
<polygon fill="#fb8072" stroke="black" points="2553.19,-214.8 2450.81,-214.8 2450.81,-178.8 2553.19,-178.8 2553.19,-214.8"/>
<text text-anchor="middle" x="2502" y="-192.6" font-family="Times,serif" font-size="14.00">HelloDirective </text>
</g>
<!-- SharedModule&#45;&gt;HelloDirective  -->
<g id="edge52" class="edge">
<title>SharedModule&#45;&gt;HelloDirective </title>
<path fill="none" stroke="black" stroke-dasharray="5,2" d="M2420.26,-148.8C2450.43,-148.8 2483.3,-148.8 2483.3,-148.8 2483.3,-148.8 2483.3,-168.65 2483.3,-168.65"/>
<polygon fill="black" stroke="black" points="2479.8,-168.65 2483.3,-178.65 2486.8,-168.65 2479.8,-168.65"/>
</g>
<!-- IfLoggedDirective  -->
<g id="node54" class="node">
<title>IfLoggedDirective </title>
<polygon fill="#fb8072" stroke="black" points="2432.67,-214.8 2309.33,-214.8 2309.33,-178.8 2432.67,-178.8 2432.67,-214.8"/>
<text text-anchor="middle" x="2371" y="-192.6" font-family="Times,serif" font-size="14.00">IfLoggedDirective </text>
</g>
<!-- SharedModule&#45;&gt;IfLoggedDirective  -->
<g id="edge53" class="edge">
<title>SharedModule&#45;&gt;IfLoggedDirective </title>
<path fill="none" stroke="black" stroke-dasharray="5,2" d="M2371,-149.91C2371,-149.91 2371,-168.79 2371,-168.79"/>
<polygon fill="black" stroke="black" points="2367.5,-168.79 2371,-178.79 2374.5,-168.79 2367.5,-168.79"/>
</g>
<!-- IfRoleIsDirective  -->
<g id="node55" class="node">
<title>IfRoleIsDirective </title>
<polygon fill="#fb8072" stroke="black" points="2290.95,-214.8 2173.05,-214.8 2173.05,-178.8 2290.95,-178.8 2290.95,-214.8"/>
<text text-anchor="middle" x="2232" y="-192.6" font-family="Times,serif" font-size="14.00">IfRoleIsDirective </text>
</g>
<!-- SharedModule&#45;&gt;IfRoleIsDirective  -->
<g id="edge54" class="edge">
<title>SharedModule&#45;&gt;IfRoleIsDirective </title>
<path fill="none" stroke="black" stroke-dasharray="5,2" d="M2321.61,-148.8C2276.33,-148.8 2216.26,-148.8 2216.26,-148.8 2216.26,-148.8 2216.26,-168.65 2216.26,-168.65"/>
<polygon fill="black" stroke="black" points="2212.76,-168.65 2216.26,-178.65 2219.76,-168.65 2212.76,-168.65"/>
</g>
<!-- IfSigninDirective  -->
<g id="node56" class="node">
<title>IfSigninDirective </title>
<polygon fill="#fb8072" stroke="black" points="2155.97,-214.8 2038.03,-214.8 2038.03,-178.8 2155.97,-178.8 2155.97,-214.8"/>
<text text-anchor="middle" x="2097" y="-192.6" font-family="Times,serif" font-size="14.00">IfSigninDirective </text>
</g>
<!-- SharedModule&#45;&gt;IfSigninDirective  -->
<g id="edge55" class="edge">
<title>SharedModule&#45;&gt;IfSigninDirective </title>
<path fill="none" stroke="black" stroke-dasharray="5,2" d="M2321.53,-147.8C2239.26,-147.8 2083.26,-147.8 2083.26,-147.8 2083.26,-147.8 2083.26,-168.55 2083.26,-168.55"/>
<polygon fill="black" stroke="black" points="2079.76,-168.55 2083.26,-178.55 2086.76,-168.55 2079.76,-168.55"/>
</g>
<!-- LinkDirective  -->
<g id="node57" class="node">
<title>LinkDirective </title>
<polygon fill="#fb8072" stroke="black" points="2020.03,-214.8 1921.97,-214.8 1921.97,-178.8 2020.03,-178.8 2020.03,-214.8"/>
<text text-anchor="middle" x="1971" y="-192.6" font-family="Times,serif" font-size="14.00">LinkDirective </text>
</g>
<!-- SharedModule&#45;&gt;LinkDirective  -->
<g id="edge56" class="edge">
<title>SharedModule&#45;&gt;LinkDirective </title>
<path fill="none" stroke="black" stroke-dasharray="5,2" d="M2321.55,-146.8C2215.83,-146.8 1977.38,-146.8 1977.38,-146.8 1977.38,-146.8 1977.38,-168.75 1977.38,-168.75"/>
<polygon fill="black" stroke="black" points="1973.88,-168.75 1977.38,-178.75 1980.88,-168.75 1973.88,-168.75"/>
</g>
<!-- LoaderDirective  -->
<g id="node58" class="node">
<title>LoaderDirective </title>
<polygon fill="#fb8072" stroke="black" points="1903.73,-214.8 1792.27,-214.8 1792.27,-178.8 1903.73,-178.8 1903.73,-214.8"/>
<text text-anchor="middle" x="1848" y="-192.6" font-family="Times,serif" font-size="14.00">LoaderDirective </text>
</g>
<!-- SharedModule&#45;&gt;LoaderDirective  -->
<g id="edge57" class="edge">
<title>SharedModule&#45;&gt;LoaderDirective </title>
<path fill="none" stroke="black" stroke-dasharray="5,2" d="M2321.66,-145.8C2192.85,-145.8 1856.38,-145.8 1856.38,-145.8 1856.38,-145.8 1856.38,-168.68 1856.38,-168.68"/>
<polygon fill="black" stroke="black" points="1852.88,-168.68 1856.38,-178.68 1859.88,-168.68 1852.88,-168.68"/>
</g>
<!-- MapquestPipe  -->
<g id="node59" class="node">
<title>MapquestPipe </title>
<polygon fill="#fb8072" stroke="black" points="1774.6,-214.8 1675.4,-214.8 1675.4,-178.8 1774.6,-178.8 1774.6,-214.8"/>
<text text-anchor="middle" x="1725" y="-192.6" font-family="Times,serif" font-size="14.00">MapquestPipe </text>
</g>
<!-- SharedModule&#45;&gt;MapquestPipe  -->
<g id="edge58" class="edge">
<title>SharedModule&#45;&gt;MapquestPipe </title>
<path fill="none" stroke="black" stroke-dasharray="5,2" d="M2321.61,-144.8C2172.15,-144.8 1734.88,-144.8 1734.88,-144.8 1734.88,-144.8 1734.88,-168.61 1734.88,-168.61"/>
<polygon fill="black" stroke="black" points="1731.38,-168.61 1734.88,-178.61 1738.38,-168.61 1731.38,-168.61"/>
</g>
<!-- MapquestStaticComponent  -->
<g id="node60" class="node">
<title>MapquestStaticComponent </title>
<polygon fill="#fb8072" stroke="black" points="1656.93,-214.8 1485.07,-214.8 1485.07,-178.8 1656.93,-178.8 1656.93,-214.8"/>
<text text-anchor="middle" x="1571" y="-192.6" font-family="Times,serif" font-size="14.00">MapquestStaticComponent </text>
</g>
<!-- SharedModule&#45;&gt;MapquestStaticComponent  -->
<g id="edge59" class="edge">
<title>SharedModule&#45;&gt;MapquestStaticComponent </title>
<path fill="none" stroke="black" stroke-dasharray="5,2" d="M2321.7,-143.8C2149.16,-143.8 1582.88,-143.8 1582.88,-143.8 1582.88,-143.8 1582.88,-168.56 1582.88,-168.56"/>
<polygon fill="black" stroke="black" points="1579.38,-168.56 1582.88,-178.56 1586.38,-168.56 1579.38,-168.56"/>
</g>
<!-- MarginDirective  -->
<g id="node61" class="node">
<title>MarginDirective </title>
<polygon fill="#fb8072" stroke="black" points="1467.29,-214.8 1354.71,-214.8 1354.71,-178.8 1467.29,-178.8 1467.29,-214.8"/>
<text text-anchor="middle" x="1411" y="-192.6" font-family="Times,serif" font-size="14.00">MarginDirective </text>
</g>
<!-- SharedModule&#45;&gt;MarginDirective  -->
<g id="edge60" class="edge">
<title>SharedModule&#45;&gt;MarginDirective </title>
<path fill="none" stroke="black" stroke-dasharray="5,2" d="M2321.77,-142.8C2127.46,-142.8 1424.38,-142.8 1424.38,-142.8 1424.38,-142.8 1424.38,-168.52 1424.38,-168.52"/>
<polygon fill="black" stroke="black" points="1420.88,-168.52 1424.38,-178.52 1427.88,-168.52 1420.88,-168.52"/>
</g>
<!-- PadDirectives  -->
<g id="node62" class="node">
<title>PadDirectives </title>
<polygon fill="#fb8072" stroke="black" points="1337.02,-214.8 1238.98,-214.8 1238.98,-178.8 1337.02,-178.8 1337.02,-214.8"/>
<text text-anchor="middle" x="1288" y="-192.6" font-family="Times,serif" font-size="14.00">PadDirectives </text>
</g>
<!-- SharedModule&#45;&gt;PadDirectives  -->
<g id="edge61" class="edge">
<title>SharedModule&#45;&gt;PadDirectives </title>
<path fill="none" stroke="black" stroke-dasharray="5,2" d="M2321.62,-141.8C2111.56,-141.8 1302.88,-141.8 1302.88,-141.8 1302.88,-141.8 1302.88,-168.79 1302.88,-168.79"/>
<polygon fill="black" stroke="black" points="1299.38,-168.79 1302.88,-178.79 1306.38,-168.79 1299.38,-168.79"/>
</g>
<!-- RowComponent  -->
<g id="node63" class="node">
<title>RowComponent </title>
<polygon fill="#fb8072" stroke="black" points="1220.78,-214.8 1109.22,-214.8 1109.22,-178.8 1220.78,-178.8 1220.78,-214.8"/>
<text text-anchor="middle" x="1165" y="-192.6" font-family="Times,serif" font-size="14.00">RowComponent </text>
</g>
<!-- SharedModule&#45;&gt;RowComponent  -->
<g id="edge62" class="edge">
<title>SharedModule&#45;&gt;RowComponent </title>
<path fill="none" stroke="black" stroke-dasharray="5,2" d="M2321.42,-140.8C2096.37,-140.8 1181.88,-140.8 1181.88,-140.8 1181.88,-140.8 1181.88,-168.77 1181.88,-168.77"/>
<polygon fill="black" stroke="black" points="1178.38,-168.77 1181.88,-178.77 1185.38,-168.77 1178.38,-168.77"/>
</g>
<!-- SeparatorComponent  -->
<g id="node64" class="node">
<title>SeparatorComponent </title>
<polygon fill="#fb8072" stroke="black" points="1091.47,-214.8 952.53,-214.8 952.53,-178.8 1091.47,-178.8 1091.47,-214.8"/>
<text text-anchor="middle" x="1022" y="-192.6" font-family="Times,serif" font-size="14.00">SeparatorComponent </text>
</g>
<!-- SharedModule&#45;&gt;SeparatorComponent  -->
<g id="edge63" class="edge">
<title>SharedModule&#45;&gt;SeparatorComponent </title>
<path fill="none" stroke="black" stroke-dasharray="5,2" d="M2321.68,-139.8C2080.96,-139.8 1040.88,-139.8 1040.88,-139.8 1040.88,-139.8 1040.88,-168.76 1040.88,-168.76"/>
<polygon fill="black" stroke="black" points="1037.38,-168.76 1040.88,-178.76 1044.38,-168.76 1037.38,-168.76"/>
</g>
<!-- SortPipe  -->
<g id="node65" class="node">
<title>SortPipe </title>
<polygon fill="#fb8072" stroke="black" points="934.72,-214.8 867.28,-214.8 867.28,-178.8 934.72,-178.8 934.72,-214.8"/>
<text text-anchor="middle" x="901" y="-192.6" font-family="Times,serif" font-size="14.00">SortPipe </text>
</g>
<!-- SharedModule&#45;&gt;SortPipe  -->
<g id="edge64" class="edge">
<title>SharedModule&#45;&gt;SortPipe </title>
<path fill="none" stroke="black" stroke-dasharray="5,2" d="M2321.52,-138.8C2067.46,-138.8 921.38,-138.8 921.38,-138.8 921.38,-138.8 921.38,-168.77 921.38,-168.77"/>
<polygon fill="black" stroke="black" points="917.88,-168.77 921.38,-178.77 924.88,-168.77 917.88,-168.77"/>
</g>
<!-- StopPropagationDirective  -->
<g id="node66" class="node">
<title>StopPropagationDirective </title>
<polygon fill="#fb8072" stroke="black" points="849.41,-214.8 684.59,-214.8 684.59,-178.8 849.41,-178.8 849.41,-214.8"/>
<text text-anchor="middle" x="767" y="-192.6" font-family="Times,serif" font-size="14.00">StopPropagationDirective </text>
</g>
<!-- SharedModule&#45;&gt;StopPropagationDirective  -->
<g id="edge65" class="edge">
<title>SharedModule&#45;&gt;StopPropagationDirective </title>
<path fill="none" stroke="black" stroke-dasharray="5,2" d="M2321.48,-137.8C2053.49,-137.8 788.88,-137.8 788.88,-137.8 788.88,-137.8 788.88,-168.78 788.88,-168.78"/>
<polygon fill="black" stroke="black" points="785.38,-168.78 788.88,-178.78 792.38,-168.78 785.38,-168.78"/>
</g>
<!-- TextComponent  -->
<g id="node67" class="node">
<title>TextComponent </title>
<polygon fill="#fb8072" stroke="black" points="666.49,-214.8 555.51,-214.8 555.51,-178.8 666.49,-178.8 666.49,-214.8"/>
<text text-anchor="middle" x="611" y="-192.6" font-family="Times,serif" font-size="14.00">TextComponent </text>
</g>
<!-- SharedModule&#45;&gt;TextComponent  -->
<g id="edge66" class="edge">
<title>SharedModule&#45;&gt;TextComponent </title>
<path fill="none" stroke="black" stroke-dasharray="5,2" d="M2321.38,-136.8C2037.78,-136.8 634.88,-136.8 634.88,-136.8 634.88,-136.8 634.88,-168.8 634.88,-168.8"/>
<polygon fill="black" stroke="black" points="631.38,-168.8 634.88,-178.8 638.38,-168.8 631.38,-168.8"/>
</g>
<!-- TimeAgoPipe  -->
<g id="node68" class="node">
<title>TimeAgoPipe </title>
<polygon fill="#fb8072" stroke="black" points="538.04,-214.8 439.96,-214.8 439.96,-178.8 538.04,-178.8 538.04,-214.8"/>
<text text-anchor="middle" x="489" y="-192.6" font-family="Times,serif" font-size="14.00">TimeAgoPipe </text>
</g>
<!-- SharedModule&#45;&gt;TimeAgoPipe  -->
<g id="edge67" class="edge">
<title>SharedModule&#45;&gt;TimeAgoPipe </title>
<path fill="none" stroke="black" stroke-dasharray="5,2" d="M2321.34,-135.8C2026.08,-135.8 514.38,-135.8 514.38,-135.8 514.38,-135.8 514.38,-168.5 514.38,-168.5"/>
<polygon fill="black" stroke="black" points="510.88,-168.5 514.38,-178.5 517.88,-168.5 510.88,-168.5"/>
</g>
<!-- UrlDirective  -->
<g id="node69" class="node">
<title>UrlDirective </title>
<polygon fill="#fb8072" stroke="black" points="422.24,-214.8 331.76,-214.8 331.76,-178.8 422.24,-178.8 422.24,-214.8"/>
<text text-anchor="middle" x="377" y="-192.6" font-family="Times,serif" font-size="14.00">UrlDirective </text>
</g>
<!-- SharedModule&#45;&gt;UrlDirective  -->
<g id="edge68" class="edge">
<title>SharedModule&#45;&gt;UrlDirective </title>
<path fill="none" stroke="black" stroke-dasharray="5,2" d="M2321.39,-134.8C2015.97,-134.8 403.88,-134.8 403.88,-134.8 403.88,-134.8 403.88,-168.53 403.88,-168.53"/>
<polygon fill="black" stroke="black" points="400.38,-168.53 403.88,-178.53 407.38,-168.53 400.38,-168.53"/>
</g>
<!-- Weather2Component  -->
<g id="node70" class="node">
<title>Weather2Component </title>
<polygon fill="#fb8072" stroke="black" points="313.74,-214.8 174.26,-214.8 174.26,-178.8 313.74,-178.8 313.74,-214.8"/>
<text text-anchor="middle" x="244" y="-192.6" font-family="Times,serif" font-size="14.00">Weather2Component </text>
</g>
<!-- SharedModule&#45;&gt;Weather2Component  -->
<g id="edge69" class="edge">
<title>SharedModule&#45;&gt;Weather2Component </title>
<path fill="none" stroke="black" stroke-dasharray="5,2" d="M2321.72,-133.8C2005.34,-133.8 272.88,-133.8 272.88,-133.8 272.88,-133.8 272.88,-168.58 272.88,-168.58"/>
<polygon fill="black" stroke="black" points="269.38,-168.58 272.88,-178.58 276.38,-168.58 269.38,-168.58"/>
</g>
<!-- WeatherComponent  -->
<g id="node71" class="node">
<title>WeatherComponent </title>
<polygon fill="#fb8072" stroke="black" points="156.24,-214.8 23.76,-214.8 23.76,-178.8 156.24,-178.8 156.24,-214.8"/>
<text text-anchor="middle" x="90" y="-192.6" font-family="Times,serif" font-size="14.00">WeatherComponent </text>
</g>
<!-- SharedModule&#45;&gt;WeatherComponent  -->
<g id="edge70" class="edge">
<title>SharedModule&#45;&gt;WeatherComponent </title>
<path fill="none" stroke="black" stroke-dasharray="5,2" d="M2321.65,-132.8C1991.85,-132.8 120.88,-132.8 120.88,-132.8 120.88,-132.8 120.88,-168.63 120.88,-168.63"/>
<polygon fill="black" stroke="black" points="117.38,-168.63 120.88,-178.63 124.38,-168.63 117.38,-168.63"/>
</g>
</g>
</svg>
