<?xml version="1.0" encoding="UTF-8" standalone="no"?>
<!DOCTYPE svg PUBLIC "-//W3C//DTD SVG 1.1//EN"
 "http://www.w3.org/Graphics/SVG/1.1/DTD/svg11.dtd">
<!-- Generated by graphviz version 2.47.3 (20210619.1520)
 -->
<!-- Title: dependencies Pages: 1 -->
<svg width="523pt" height="174pt"
 viewBox="0.00 0.00 523.00 173.80" xmlns="http://www.w3.org/2000/svg" xmlns:xlink="http://www.w3.org/1999/xlink">
<g id="graph0" class="graph" transform="scale(1 1) rotate(0) translate(4 169.8)">
<title>dependencies</title>
<polygon fill="white" stroke="transparent" points="-4,4 -4,-169.8 519,-169.8 519,4 -4,4"/>
<text text-anchor="middle" x="257.5" y="-8.2" font-family="sans-serif" font-size="14.00">dependencies</text>
<g id="clust1" class="cluster">
<title>cluster_UikitDemo2Module</title>
<polygon fill="none" stroke="black" stroke-dasharray="1,5" points="8,-32.8 8,-157.8 507,-157.8 507,-32.8 8,-32.8"/>
</g>
<g id="clust2" class="cluster">
<title>cluster_UikitDemo2Module_declarations</title>
<polygon fill="none" stroke="black" points="331,-40.8 331,-92.8 499,-92.8 499,-40.8 331,-40.8"/>
</g>
<g id="clust4" class="cluster">
<title>cluster_UikitDemo2Module_imports</title>
<polygon fill="none" stroke="black" points="16,-40.8 16,-92.8 323,-92.8 323,-40.8 16,-40.8"/>
</g>
<!-- UikitDemo2Component -->
<g id="node1" class="node">
<title>UikitDemo2Component</title>
<polygon fill="#ffffb3" stroke="black" points="490.82,-84.8 339.18,-84.8 339.18,-48.8 490.82,-48.8 490.82,-84.8"/>
<text text-anchor="middle" x="415" y="-62.6" font-family="Times,serif" font-size="14.00">UikitDemo2Component</text>
</g>
<!-- UikitDemo2Module -->
<g id="node2" class="node">
<title>UikitDemo2Module</title>
<polygon fill="#8dd3c7" stroke="black" points="330.54,-149.8 327.54,-153.8 306.54,-153.8 303.54,-149.8 201.46,-149.8 201.46,-113.8 330.54,-113.8 330.54,-149.8"/>
<text text-anchor="middle" x="266" y="-127.6" font-family="Times,serif" font-size="14.00">UikitDemo2Module</text>
</g>
<!-- UikitDemo2Component&#45;&gt;UikitDemo2Module -->
<g id="edge1" class="edge">
<title>UikitDemo2Component&#45;&gt;UikitDemo2Module</title>
<path fill="none" stroke="black" d="M339.02,-66.8C329.48,-66.8 322.99,-66.8 322.99,-66.8 322.99,-66.8 322.99,-103.69 322.99,-103.69"/>
<polygon fill="black" stroke="black" points="319.49,-103.69 322.99,-113.69 326.49,-103.69 319.49,-103.69"/>
</g>
<!-- SharedModule -->
<g id="node3" class="node">
<title>SharedModule</title>
<polygon fill="#8dd3c7" stroke="black" points="315.42,-84.8 312.42,-88.8 291.42,-88.8 288.42,-84.8 216.58,-84.8 216.58,-48.8 315.42,-48.8 315.42,-84.8"/>
<text text-anchor="middle" x="266" y="-62.6" font-family="Times,serif" font-size="14.00">SharedModule</text>
</g>
<!-- SharedModule&#45;&gt;UikitDemo2Module -->
<g id="edge2" class="edge">
<title>SharedModule&#45;&gt;UikitDemo2Module</title>
<path fill="none" stroke="black" d="M266,-84.91C266,-84.91 266,-103.79 266,-103.79"/>
<polygon fill="black" stroke="black" points="262.5,-103.79 266,-113.79 269.5,-103.79 262.5,-103.79"/>
</g>
<!-- UikitDemo2RoutingModule -->
<g id="node4" class="node">
<title>UikitDemo2RoutingModule</title>
<polygon fill="#8dd3c7" stroke="black" points="198.16,-84.8 195.16,-88.8 174.16,-88.8 171.16,-84.8 23.84,-84.8 23.84,-48.8 198.16,-48.8 198.16,-84.8"/>
<text text-anchor="middle" x="111" y="-62.6" font-family="Times,serif" font-size="14.00">UikitDemo2RoutingModule</text>
</g>
<!-- UikitDemo2RoutingModule&#45;&gt;UikitDemo2Module -->
<g id="edge3" class="edge">
<title>UikitDemo2RoutingModule&#45;&gt;UikitDemo2Module</title>
<path fill="none" stroke="black" d="M198.52,-66.8C204.97,-66.8 209.01,-66.8 209.01,-66.8 209.01,-66.8 209.01,-103.69 209.01,-103.69"/>
<polygon fill="black" stroke="black" points="205.51,-103.69 209.01,-113.69 212.51,-103.69 205.51,-103.69"/>
</g>
</g>
</svg>
