<?xml version="1.0" encoding="UTF-8" standalone="no"?>
<!DOCTYPE svg PUBLIC "-//W3C//DTD SVG 1.1//EN"
 "http://www.w3.org/Graphics/SVG/1.1/DTD/svg11.dtd">
<!-- Generated by graphviz version 2.47.3 (20210619.1520)
 -->
<!-- Title: dependencies Pages: 1 -->
<svg width="496pt" height="174pt"
 viewBox="0.00 0.00 496.00 173.80" xmlns="http://www.w3.org/2000/svg" xmlns:xlink="http://www.w3.org/1999/xlink">
<g id="graph0" class="graph" transform="scale(1 1) rotate(0) translate(4 169.8)">
<title>dependencies</title>
<polygon fill="white" stroke="transparent" points="-4,4 -4,-169.8 492,-169.8 492,4 -4,4"/>
<text text-anchor="middle" x="244" y="-8.2" font-family="sans-serif" font-size="14.00">dependencies</text>
<g id="clust1" class="cluster">
<title>cluster_DirectivesModule</title>
<polygon fill="none" stroke="black" stroke-dasharray="1,5" points="8,-32.8 8,-157.8 480,-157.8 480,-32.8 8,-32.8"/>
</g>
<g id="clust2" class="cluster">
<title>cluster_DirectivesModule_declarations</title>
<polygon fill="none" stroke="black" points="318,-40.8 318,-92.8 472,-92.8 472,-40.8 318,-40.8"/>
</g>
<g id="clust4" class="cluster">
<title>cluster_DirectivesModule_imports</title>
<polygon fill="none" stroke="black" points="16,-40.8 16,-92.8 310,-92.8 310,-40.8 16,-40.8"/>
</g>
<!-- DirectivesComponent -->
<g id="node1" class="node">
<title>DirectivesComponent</title>
<polygon fill="#ffffb3" stroke="black" points="464.36,-84.8 325.64,-84.8 325.64,-48.8 464.36,-48.8 464.36,-84.8"/>
<text text-anchor="middle" x="395" y="-62.6" font-family="Times,serif" font-size="14.00">DirectivesComponent</text>
</g>
<!-- DirectivesModule -->
<g id="node2" class="node">
<title>DirectivesModule</title>
<polygon fill="#8dd3c7" stroke="black" points="279.58,-149.8 276.58,-153.8 255.58,-153.8 252.58,-149.8 162.42,-149.8 162.42,-113.8 279.58,-113.8 279.58,-149.8"/>
<text text-anchor="middle" x="221" y="-127.6" font-family="Times,serif" font-size="14.00">DirectivesModule</text>
</g>
<!-- DirectivesComponent&#45;&gt;DirectivesModule -->
<g id="edge1" class="edge">
<title>DirectivesComponent&#45;&gt;DirectivesModule</title>
<path fill="none" stroke="black" d="M395,-84.91C395,-104.14 395,-131.8 395,-131.8 395,-131.8 289.91,-131.8 289.91,-131.8"/>
<polygon fill="black" stroke="black" points="289.91,-128.3 279.91,-131.8 289.91,-135.3 289.91,-128.3"/>
</g>
<!-- DirectivesRoutingModule -->
<g id="node3" class="node">
<title>DirectivesRoutingModule</title>
<polygon fill="#8dd3c7" stroke="black" points="302.2,-84.8 299.2,-88.8 278.2,-88.8 275.2,-84.8 139.8,-84.8 139.8,-48.8 302.2,-48.8 302.2,-84.8"/>
<text text-anchor="middle" x="221" y="-62.6" font-family="Times,serif" font-size="14.00">DirectivesRoutingModule</text>
</g>
<!-- DirectivesRoutingModule&#45;&gt;DirectivesModule -->
<g id="edge2" class="edge">
<title>DirectivesRoutingModule&#45;&gt;DirectivesModule</title>
<path fill="none" stroke="black" d="M221,-84.91C221,-84.91 221,-103.79 221,-103.79"/>
<polygon fill="black" stroke="black" points="217.5,-103.79 221,-113.79 224.5,-103.79 217.5,-103.79"/>
</g>
<!-- SharedModule -->
<g id="node4" class="node">
<title>SharedModule</title>
<polygon fill="#8dd3c7" stroke="black" points="122.42,-84.8 119.42,-88.8 98.42,-88.8 95.42,-84.8 23.58,-84.8 23.58,-48.8 122.42,-48.8 122.42,-84.8"/>
<text text-anchor="middle" x="73" y="-62.6" font-family="Times,serif" font-size="14.00">SharedModule</text>
</g>
<!-- SharedModule&#45;&gt;DirectivesModule -->
<g id="edge3" class="edge">
<title>SharedModule&#45;&gt;DirectivesModule</title>
<path fill="none" stroke="black" d="M73,-84.91C73,-104.14 73,-131.8 73,-131.8 73,-131.8 152.08,-131.8 152.08,-131.8"/>
<polygon fill="black" stroke="black" points="152.08,-135.3 162.08,-131.8 152.08,-128.3 152.08,-135.3"/>
</g>
</g>
</svg>
